{
    "/js/app.js": "/js/app.js",
    "/0.ebe645bc071073ef463d.hot-update.js": "/0.ebe645bc071073ef463d.hot-update.js",
    "/0.15fdea1ee072288d8a1b.hot-update.js": "/0.15fdea1ee072288d8a1b.hot-update.js",
    "/0.88d516ab38a928721178.hot-update.js": "/0.88d516ab38a928721178.hot-update.js",
    "/0.969804aaae445a412721.hot-update.js": "/0.969804aaae445a412721.hot-update.js",
    "/0.c1802b240602f3154637.hot-update.js": "/0.c1802b240602f3154637.hot-update.js",
    "/0.45d2db18defabbd454b7.hot-update.js": "/0.45d2db18defabbd454b7.hot-update.js",
    "/0.d71e0d6353789eab99ed.hot-update.js": "/0.d71e0d6353789eab99ed.hot-update.js",
    "/0.ba4452c173c0d67299ae.hot-update.js": "/0.ba4452c173c0d67299ae.hot-update.js",
    "/0.81469991ac051d5355fd.hot-update.js": "/0.81469991ac051d5355fd.hot-update.js",
    "/0.889d4fc3528000676be4.hot-update.js": "/0.889d4fc3528000676be4.hot-update.js",
    "/0.a8eca4aaeaa6995b9482.hot-update.js": "/0.a8eca4aaeaa6995b9482.hot-update.js",
    "/0.a3cbf43cdd470aaeb3e9.hot-update.js": "/0.a3cbf43cdd470aaeb3e9.hot-update.js",
    "/0.d3296a96e8763f5d79ce.hot-update.js": "/0.d3296a96e8763f5d79ce.hot-update.js",
    "/0.90d46bfd1e1a639b9036.hot-update.js": "/0.90d46bfd1e1a639b9036.hot-update.js",
    "/0.950c9ce32bda31e46aca.hot-update.js": "/0.950c9ce32bda31e46aca.hot-update.js",
    "/0.9eac57a311573fa31bc2.hot-update.js": "/0.9eac57a311573fa31bc2.hot-update.js",
    "/0.f383e3c38c5e3bec1ffc.hot-update.js": "/0.f383e3c38c5e3bec1ffc.hot-update.js",
    "/0.538fd5d84a74deae175e.hot-update.js": "/0.538fd5d84a74deae175e.hot-update.js",
    "/0.1206f3eb01575d0f8993.hot-update.js": "/0.1206f3eb01575d0f8993.hot-update.js",
    "/0.cb4848da81f1a4134d0f.hot-update.js": "/0.cb4848da81f1a4134d0f.hot-update.js",
    "/0.23eea1077e75fbbedc9e.hot-update.js": "/0.23eea1077e75fbbedc9e.hot-update.js",
    "/0.7078198bf17fd389eed6.hot-update.js": "/0.7078198bf17fd389eed6.hot-update.js",
    "/0.87adb7e016376621a4e3.hot-update.js": "/0.87adb7e016376621a4e3.hot-update.js",
    "/0.a4886870973cac427abf.hot-update.js": "/0.a4886870973cac427abf.hot-update.js",
    "/0.5031d80b2428da61d413.hot-update.js": "/0.5031d80b2428da61d413.hot-update.js",
    "/0.25a2850500ed1ee429fb.hot-update.js": "/0.25a2850500ed1ee429fb.hot-update.js",
    "/0.59c64a1d37a490f71439.hot-update.js": "/0.59c64a1d37a490f71439.hot-update.js",
    "/0.e18e8502a4637c52d7ee.hot-update.js": "/0.e18e8502a4637c52d7ee.hot-update.js",
    "/0.2a685b60907429d947a0.hot-update.js": "/0.2a685b60907429d947a0.hot-update.js",
    "/0.017a7e16f21d5a71f407.hot-update.js": "/0.017a7e16f21d5a71f407.hot-update.js",
    "/0.d37ebdc4d13eacbca4c8.hot-update.js": "/0.d37ebdc4d13eacbca4c8.hot-update.js",
    "/0.7fb25f504f16229aa663.hot-update.js": "/0.7fb25f504f16229aa663.hot-update.js",
    "/0.5eab248b8530e0e20a48.hot-update.js": "/0.5eab248b8530e0e20a48.hot-update.js",
    "/0.4ae3408b5934abae4388.hot-update.js": "/0.4ae3408b5934abae4388.hot-update.js",
    "/0.13341024c9c2b57be842.hot-update.js": "/0.13341024c9c2b57be842.hot-update.js",
    "/0.3f59da7d4ac2f2ef48a3.hot-update.js": "/0.3f59da7d4ac2f2ef48a3.hot-update.js",
    "/0.75a2c15b1feb5a87171c.hot-update.js": "/0.75a2c15b1feb5a87171c.hot-update.js",
    "/0.a332fb9fb3a80401e6a7.hot-update.js": "/0.a332fb9fb3a80401e6a7.hot-update.js",
    "/0.2622797002d5ee370b4b.hot-update.js": "/0.2622797002d5ee370b4b.hot-update.js",
    "/0.449d5f59ecf88cc8c6be.hot-update.js": "/0.449d5f59ecf88cc8c6be.hot-update.js",
    "/0.78c93c919a0962e91e7d.hot-update.js": "/0.78c93c919a0962e91e7d.hot-update.js",
    "/0.9caa58982a78af133da3.hot-update.js": "/0.9caa58982a78af133da3.hot-update.js",
    "/0.fc942b09e44039d4db1f.hot-update.js": "/0.fc942b09e44039d4db1f.hot-update.js",
    "/0.ef15707928f8b35828ee.hot-update.js": "/0.ef15707928f8b35828ee.hot-update.js",
    "/0.7d24428043105acc91fd.hot-update.js": "/0.7d24428043105acc91fd.hot-update.js",
    "/0.13c33c57b3e5b4e7b051.hot-update.js": "/0.13c33c57b3e5b4e7b051.hot-update.js",
    "/0.62b24b7cf59ac8a1bb48.hot-update.js": "/0.62b24b7cf59ac8a1bb48.hot-update.js",
    "/0.8565a39f6b8731331af8.hot-update.js": "/0.8565a39f6b8731331af8.hot-update.js",
    "/0.f5e1f4c387836306f482.hot-update.js": "/0.f5e1f4c387836306f482.hot-update.js",
    "/0.bb799ed485b2268f3764.hot-update.js": "/0.bb799ed485b2268f3764.hot-update.js",
    "/0.0c13dc054d1e30b40030.hot-update.js": "/0.0c13dc054d1e30b40030.hot-update.js",
    "/0.4c91e5667e8341129674.hot-update.js": "/0.4c91e5667e8341129674.hot-update.js",
    "/0.6adec2876b6561443478.hot-update.js": "/0.6adec2876b6561443478.hot-update.js",
    "/0.560c43c44362564d6620.hot-update.js": "/0.560c43c44362564d6620.hot-update.js",
    "/0.1ec9a8ece841960ebe96.hot-update.js": "/0.1ec9a8ece841960ebe96.hot-update.js",
    "/0.472810e5404131fa595d.hot-update.js": "/0.472810e5404131fa595d.hot-update.js",
    "/0.8dd59d947ce3426efdc3.hot-update.js": "/0.8dd59d947ce3426efdc3.hot-update.js",
    "/0.17319ad758eda7fd2a74.hot-update.js": "/0.17319ad758eda7fd2a74.hot-update.js",
    "/0.d9180d9e7a043188b23c.hot-update.js": "/0.d9180d9e7a043188b23c.hot-update.js",
    "/0.62589cd3019a71966dc7.hot-update.js": "/0.62589cd3019a71966dc7.hot-update.js",
    "/0.a73236ad866db3db4822.hot-update.js": "/0.a73236ad866db3db4822.hot-update.js",
    "/0.8fd73f96dd77f31259ca.hot-update.js": "/0.8fd73f96dd77f31259ca.hot-update.js",
    "/0.5df46f13641f478dd412.hot-update.js": "/0.5df46f13641f478dd412.hot-update.js",
    "/0.38350f320cad051df253.hot-update.js": "/0.38350f320cad051df253.hot-update.js",
    "/0.37ff6fb0d04a8699274d.hot-update.js": "/0.37ff6fb0d04a8699274d.hot-update.js",
    "/0.0d637e80e83ab6496596.hot-update.js": "/0.0d637e80e83ab6496596.hot-update.js",
    "/0.e97cbae378d3fc27c8ab.hot-update.js": "/0.e97cbae378d3fc27c8ab.hot-update.js",
    "/0.0b8de1d9ec01d0450417.hot-update.js": "/0.0b8de1d9ec01d0450417.hot-update.js",
    "/0.6dba1bf9d00fd512b8af.hot-update.js": "/0.6dba1bf9d00fd512b8af.hot-update.js",
    "/0.a9a06cb7d66a3f2892ba.hot-update.js": "/0.a9a06cb7d66a3f2892ba.hot-update.js",
    "/0.d028e7849b939f33c50f.hot-update.js": "/0.d028e7849b939f33c50f.hot-update.js",
    "/0.8c37bf2ea56c48dac8e4.hot-update.js": "/0.8c37bf2ea56c48dac8e4.hot-update.js",
    "/0.afa1c6ced17d933d71e2.hot-update.js": "/0.afa1c6ced17d933d71e2.hot-update.js",
    "/0.ad8738a3581d9c60e7b8.hot-update.js": "/0.ad8738a3581d9c60e7b8.hot-update.js",
    "/0.3ae4d512596109996b72.hot-update.js": "/0.3ae4d512596109996b72.hot-update.js",
    "/0.8c0fea5531d55ad4f7da.hot-update.js": "/0.8c0fea5531d55ad4f7da.hot-update.js",
    "/0.f7b99205732639cd815e.hot-update.js": "/0.f7b99205732639cd815e.hot-update.js",
    "/0.a27c173f9303b6897b2c.hot-update.js": "/0.a27c173f9303b6897b2c.hot-update.js",
    "/0.4ff7fa6c2f0456cff7aa.hot-update.js": "/0.4ff7fa6c2f0456cff7aa.hot-update.js",
    "/0.81f2d53cc33ed1bc58d6.hot-update.js": "/0.81f2d53cc33ed1bc58d6.hot-update.js",
    "/0.20f17bf5c3b7870911e8.hot-update.js": "/0.20f17bf5c3b7870911e8.hot-update.js",
    "/0.09e8e8699e55121a9e86.hot-update.js": "/0.09e8e8699e55121a9e86.hot-update.js"
}